Lab 3
…
##              Df    Sum Sq   Mean Sq F value   Pr(>F)    
## County      104 1.739e+11 1.672e+09   2.892 3.33e-16 ***
## Residuals   665 3.845e+11 5.782e+08                     
## ---
## Signif. codes:  0 '***' 0.001 '**' 0.01 '*' 0.05 '.' 0.1 ' ' 1

vark<-foodk %>%
  group_by(., County) %>%
  summarize(variation = sd(MedianFamilyIncome)) %>%
  arrange(desc(variation))
print(vark)

## # A tibble: 105 x 2
##    County      variation
##    <chr>           <dbl>
##  1 Johnson        36193.
##  2 Sedgwick       28224.
##  3 Riley          24113.
##  4 Wyandotte      23830.
##  5 Finney         22965.
##  6 Shawnee        22849.
##  7 Leavenworth    21865.
##  8 Douglas        21707.
##  9 Seward         16684.
## 10 Saline         16311.
## # ... with 95 more rows
…
varlowk<-lowaccessk %>%
  group_by(., County) %>%
  summarize(variationinc = sd(MedianFamilyIncome),
            meaninc = mean(MedianFamilyIncome)) %>%
  arrange(desc(variationinc))

print(varlowk)

## # A tibble: 97 x 3
##    County      variationinc meaninc
##    <chr>              <dbl>   <dbl>
##  1 Johnson           35995.  93928.
##  2 Sedgwick          28695.  60379.
##  3 Leavenworth       24864.  65831.
##  4 Douglas           23282.  68569.
##  5 Shawnee           22989.  55024.
##  6 Riley             17613.  66948.
##  7 Wyandotte         17273.  40273.
##  8 Seward            16684.  54877.
##  9 Saline            16311.  58846.
## 10 Ellis             16028.  62858.
## # ... with 87 more rows
…
varKids<-foodk %>%
  group_by(., County) %>%
  summarize(varK = sd(TractKids),
            meanK = mean(TractKids)) %>%
  arrange(desc(meanK))

print(varKids)

## # A tibble: 105 x 3
##    County        varK meanK
##    <chr>        <dbl> <dbl>
##  1 Pottawatomie  438. 1603.
##  2 Ford          814. 1496.
##  3 Harvey        333. 1476.
##  4 Seward        593. 1467 
##  5 Butler        572. 1365.
##  6 Franklin      371. 1350 
##  7 Geary         690. 1327.
##  8 Haskell        NA  1326 
##  9 Scott          NA  1236 
## 10 Grant        1078. 1228.
## # ... with 95 more rows
…
